construindo mapas: um guia para representar a população de uberlândia com o R
…
o objeto tabela é uma lista de data frames, onde cada elemento da lista corresponde a uma tabela raspada da página. como utilizamos seletores css específicos (div#chunk-cmqe5 e table), apenas a tabela que nos interessa foi capturada. vamos verificar a estrutura do objeto tabela.

str(tabela)

List of 1
 $ : tibble [76 × 2] (S3: tbl_df/tbl/data.frame)
  ..$ X1: chr [1:76] "Bairro" "Santa Mônica" "Shopping Park" "São Jorge" ...
  ..$ X2: chr [1:76] "População" "37.665" "30.240" "29.578" ...

a partir da estrutura de tabela, verificamos, de fato, que existe apenas um elemento na lista e, por isso, nosso conjunto de interesse pode ser acessado a partir de tabela[[1]]:

print(tabela[[1]], n = 5)

# A tibble: 76 × 2
  X1            X2       
  <chr>         <chr>    
1 Bairro        População
2 Santa Mônica  37.665   
3 Shopping Park 30.240   
4 São Jorge     29.578   
5 Morumbi       25.898   
# ℹ 71 more rows
…
